{
  "msg_html": "<!DOCTYPE html><html xmlns='http://www.w3.org/1999/xhtml' xmlns:v='urn:schemas-microsoft-com:vml' xmlns:o='urn:schemas-microsoft-com:office:office'><head>  <title></title>  <!--[if !mso]><!-- -->  <meta http-equiv='X-UA-Compatible' content='IE=edge'>  <!--<![endif]--><meta http-equiv='Content-Type' content='text/html; charset=UTF-8'><meta name='viewport' content='width=device-width, initial-scale=1.0'><style type='text/css'>  #outlook a { padding: 0; }  .ReadMsgBody { width: 100%; }  .ExternalClass { width: 100%; }  .ExternalClass * { line-height:100%; }  body { margin: 0; padding: 0; -webkit-text-size-adjust: 100%; -ms-text-size-adjust: 100%; }  table, td { border-collapse:collapse; mso-table-lspace: 0pt; mso-table-rspace: 0pt; }  img { border: 0; height: auto; line-height: 100%; outline: none; text-decoration: none; -ms-interpolation-mode: bicubic; }  p { display: block; margin: 13px 0; }</style><!--[if !mso]><!--><style type='text/css'>  @media only screen and (max-width:480px) {    @-ms-viewport { width:320px; }    @viewport { width:320px; }  }</style><!--<![endif]--><!--[if mso]><xml>  <o:OfficeDocumentSettings>    <o:AllowPNG/>    <o:PixelsPerInch>96</o:PixelsPerInch>  </o:OfficeDocumentSettings></xml><![endif]--><!--[if lte mso 11]><style type='text/css'>  .outlook-group-fix {    width:100% !important;  }</style><![endif]--><!--[if !mso]><!-->    <link href='https://fonts.googleapis.com/css?family=Ubuntu:300,400,500,700' rel='stylesheet' type='text/css'>    <style type='text/css'>        @import url(https://fonts.googleapis.com/css?family=Ubuntu:300,400,500,700);    </style>  <!--<![endif]--><style type='text/css'>  @media only screen and (min-width:480px) {    .mj-column-per-100 { width:100%!important; }  }</style></head><body style='background: #FFFFFF;'>    <div class='mj-container' style='background-color:#FFFFFF;'><!--[if mso | IE]>      <table role='presentation' border='0' cellpadding='0' cellspacing='0' width='600' align='center' style='width:600px;'>        <tr>          <td style='line-height:0px;font-size:0px;mso-line-height-rule:exactly;'>      <![endif]--><div style='margin:0px auto;max-width:600px;'><table role='presentation' cellpadding='0' cellspacing='0' style='font-size:0px;width:100%;' align='center' border='0'><tbody><tr><td style='text-align:center;vertical-align:top;direction:ltr;font-size:0px;padding:9px 0px 9px 0px;'><!--[if mso | IE]>      <table role='presentation' border='0' cellpadding='0' cellspacing='0'>        <tr>          <td style='vertical-align:top;width:600px;'>      <![endif]--><div class='mj-column-per-100 outlook-group-fix' style='vertical-align:top;display:inline-block;direction:ltr;font-size:13px;text-align:left;width:100%;'><table role='presentation' cellpadding='0' cellspacing='0' width='100%' border='0'><tbody><tr><td style='word-wrap:break-word;font-size:0px;padding:0px 0px 50px 0px;' align='center'><table role='presentation' cellpadding='0' cellspacing='0' style='border-collapse:collapse;border-spacing:0px;' align='center' border='0'><tbody><tr><td style='width:600px;'><img alt='' title='' height='auto' src='{{host}}/get_your_data_logo.png' style='border:none;border-radius:0px;display:block;font-size:13px;outline:none;text-decoration:none;width:100%;height:auto;' width='600'></td></tr></tbody></table></td></tr><tr><td style='word-wrap:break-word;font-size:0px;padding:0px 20px 0px 20px;' align='left'><div style='cursor:auto;color:#000000;font-family:Ubuntu, Helvetica, Arial, sans-serif;font-size:11px;line-height:22px;text-align:left;'><p><span style='font-size:24px;'>We think that there was a problem generating your archive. </span></p></div></td></tr><tr><td style='word-wrap:break-word;font-size:0px;padding:0px 20px 0px 20px;' align='left'><div style='cursor:auto;color:#000000;font-family:Ubuntu, Helvetica, Arial, sans-serif;font-size:11px;line-height:22px;text-align:left;'><p><span style='font-size:14px;'>It usually only takes a few minutes to generate your Google archive and for us to process it. These are the most likely scenarios.</span></p><p><span style='font-size:14px;'>1) You selected too many fields in the archive generation page. This makes your archive HUGE and takes days to generate. You should only select <strong>Location History</strong> (If available) and <strong>My Activity</strong>.</span></p><p><span style='font-size:14px;'>2) You didn&apos;t change the delivery method from <strong>Send download link via email </strong>to <strong>Add to drive</strong></span></p><p><span style='font-size:14px;'>3) You were signed into another Google account when you landed on the Takeout page. Make sure you are signed into the account that you authorised us to access.</span></p></div></td></tr><tr><td style='word-wrap:break-word;font-size:0px;padding:0px 0px 0px 0px;' align='center'><table role='presentation' cellpadding='0' cellspacing='0' style='border-collapse:collapse;border-spacing:0px;' align='center' border='0'><tbody><tr><td style='width:600px;'><a href='{{host}}/create_archive_instructions.gif' target='_blank'><img alt='' title='' height='auto' src='{{host}}/create_archive_instructions.gif' style='border:none;border-radius:0px;display:block;font-size:13px;outline:none;text-decoration:none;width:100%;height:auto;' width='600'></a></td></tr></tbody></table></td></tr><tr><td style='word-wrap:break-word;font-size:0px;padding:0px 20px 0px 20px;' align='left'><div style='cursor:auto;color:#000000;font-family:Ubuntu, Helvetica, Arial, sans-serif;font-size:11px;line-height:22px;text-align:left;'><p><span style='font-size:14px;'>You can always create a new archive. We will pick it up when its ready and let you know.</span></p></div></td></tr><tr><td style='word-wrap:break-word;font-size:0px;padding:10px 13px 10px 13px;padding-top:10px;padding-left:25px;' align='left'><table role='presentation' cellpadding='0' cellspacing='0' style='border-collapse:separate;' align='left' border='0'><tbody><tr><td style='border:none;border-radius:24px;color:#fff;cursor:auto;padding:10px 25px;' align='center' valign='middle' bgcolor='#6635F8'><a href='https://takeout.google.com/' style='text-decoration:none;background:#6635F8;color:#fff;font-family:Ubuntu, Helvetica, Arial, sans-serif, Helvetica, Arial, sans-serif;font-size:23px;font-weight:normal;line-height:120%;text-transform:none;margin:0px;' target='_blank'>Generate new Archive</a></td></tr></tbody></table></td></tr></tbody></table></div><!--[if mso | IE]>      </td></tr></table>      <![endif]--></td></tr></tbody></table></div><!--[if mso | IE]>      </td></tr></table>      <![endif]--></div></body></html>",
  "msg_plain": "",
  "subject": "There seems to have been a mistake configuring your archive"
}
